PS_Config_Lmt_FW_CC_P,,,,,,,,,,,,,,,,,
110,,,,,,,,,,,,,,,,,
PS_Config_Lmt_FW_CC_N,,,,,,,,,,,,,,,,,
70,,,,,,,,,,,,,,,,,
PS_Config_Lmt_FW_Diff_P,,,,,,,,,,,,,,,,,
50,,,,,,,,,,,,,,,,,
PS_Config_Lmt_FW_Diff_N,,,,,,,,,,,,,,,,,
-50,,,,,,,,,,,,,,,,,
PS_Config_Lmt_Short_Rawdata_P,,,,,,,,,,,,,,,,,
13500,,,,,,,,,,,,,,,,,
PS_Config_Lmt_Short_Rawdata_N,,,,,,,,,,,,,,,,,
11500,,,,,,,,,,,,,,,,,
PS_Config_Lmt_FW_Rawdata_P,,,,,,,,,,,,,,,,,
1070,1070,1070,1070,1070,1070,1070,1070,1070,1070,1070,1070,1070,1070,1070,1070,1070,1070
1070,1070,1070,1070,1070,1070,1070,1070,1070,1070,1070,1070,1070,1070,1070,1070,1070,1070
1070,1070,1070,1070,1070,1070,1070,1070,1070,1070,1070,1070,1070,1070,1070,1070,1070,1070
1070,1070,1070,1070,1070,1070,1070,1070,1070,1070,1070,1070,1070,1070,1070,1070,1070,1070
1070,1070,1070,1070,1070,1070,1070,1070,1070,1070,1070,1070,1070,1070,1070,1070,1070,1070
1070,1070,1070,1070,1070,1070,1070,1070,1070,1070,1070,1070,1070,1070,1070,1070,1070,1070
1070,1070,1070,1070,1070,1070,1070,1070,1070,1070,1070,1070,1070,1070,1070,1070,1070,1070
1070,1070,1070,1070,1070,1070,1070,1070,1070,1070,1070,1070,1070,1070,1070,1070,1070,1070
1070,1070,1070,1070,1070,1070,1070,1070,1070,1070,1070,1070,1070,1070,1070,1070,1070,1070
1070,1070,1070,1070,1070,1070,1070,1070,1070,1070,1070,1070,1070,1070,1070,1070,1070,1070
1070,1070,1070,1070,1070,1070,1070,1070,1070,1070,1070,1070,1070,1070,1070,1070,1070,1070
1070,1070,1070,1070,1070,1070,1070,1070,1070,1070,1070,1070,1070,1070,1070,1070,1070,1070
1070,1070,1070,1070,1070,1070,1070,1070,1070,1070,1070,1070,1070,1070,1070,1070,1070,1070
1070,1070,1070,1070,1070,1070,1070,1070,1070,1070,1070,1070,1070,1070,1070,1070,1070,1070
1070,1070,1070,1070,1070,1070,1070,1070,1070,1070,1070,1070,1070,1070,1070,1070,1070,1070
1070,1070,1070,1070,1070,1070,1070,1070,1070,1070,1070,1070,1070,1070,1070,1070,1070,1070
1070,1070,1070,1070,1070,1070,1070,1070,1070,1070,1070,1070,1070,1070,1070,1070,1070,1070
1070,1070,1070,1070,1070,1070,1070,1070,1070,1070,1070,1070,1070,1070,1070,1070,1070,1070
1070,1070,1070,1070,1070,1070,1070,1070,1070,1070,1070,1070,1070,1070,1070,1070,1070,1070
1070,1070,1070,1070,1070,1070,1070,1070,1070,1070,1070,1070,1070,1070,1070,1070,1070,1070
1070,1070,1070,1070,1070,1070,1070,1070,1070,1070,1070,1070,1070,1070,1070,1070,1070,1070
1070,1070,1070,1070,1070,1070,1070,1070,1070,1070,1070,1070,1070,1070,1070,1070,1070,1070
1070,1070,1070,1070,1070,1070,1070,1070,1070,1070,1070,1070,1070,1070,1070,1070,1070,1070
1070,1070,1070,1070,1070,1070,1070,1070,1070,1070,1070,1070,1070,1070,1070,1070,1070,1070
1070,1070,1070,1070,1070,1070,1070,1070,1070,1070,1070,1070,1070,1070,1070,1070,1070,1070
1070,1070,1070,1070,1070,1070,1070,1070,1070,1070,1070,1070,1070,1070,1070,1070,1070,1070
1070,1070,1070,1070,1070,1070,1070,1070,1070,1070,1070,1070,1070,1070,1070,1070,1070,1070
1070,1070,1070,1070,1070,1070,1070,1070,1070,1070,1070,1070,1070,1070,1070,1070,1070,1070
1070,1070,1070,1070,1070,1070,1070,1070,1070,1070,1070,1070,1070,1070,1070,1070,1070,1070
1070,1070,1070,1070,1070,1070,1070,1070,1070,1070,1070,1070,1070,1070,1070,1070,1070,1070
1070,1070,1070,1070,1070,1070,1070,1070,1070,1070,1070,1070,1070,1070,1070,1070,1070,1070
1070,1070,1070,1070,1070,1070,1070,1070,1070,1070,1070,1070,1070,1070,1070,1070,1070,1070
PS_Config_Lmt_FW_Rawdata_N,,,,,,,,,,,,,,,,,
750,750,750,750,750,750,750,750,750,750,750,750,750,750,750,750,750,750
750,750,750,750,750,750,750,750,750,750,750,750,750,750,750,750,750,750
750,750,750,750,750,750,750,750,750,750,750,750,750,750,750,750,750,750
750,750,750,750,750,750,750,750,750,750,750,750,750,750,750,750,750,750
750,750,750,750,750,750,750,750,750,750,750,750,750,750,750,750,750,750
750,750,750,750,750,750,750,750,750,750,750,750,750,750,750,750,750,750
750,750,750,750,750,750,750,750,750,750,750,750,750,750,750,750,750,750
750,750,750,750,750,750,750,750,750,750,750,750,750,750,750,750,750,750
750,750,750,750,750,750,750,750,750,750,750,750,750,750,750,750,750,750
750,750,750,750,750,750,750,750,750,750,750,750,750,750,750,750,750,750
750,750,750,750,750,750,750,750,750,750,750,750,750,750,750,750,750,750
750,750,750,750,750,750,750,750,750,750,750,750,750,750,750,750,750,750
750,750,750,750,750,750,750,750,750,750,750,750,750,750,750,750,750,750
750,750,750,750,750,750,750,750,750,750,750,750,750,750,750,750,750,750
750,750,750,750,750,750,750,750,750,750,750,750,750,750,750,750,750,750
750,750,750,750,750,750,750,750,750,750,750,750,750,750,750,750,750,750
750,750,750,750,750,750,750,750,750,750,750,750,750,750,750,750,750,750
750,750,750,750,750,750,750,750,750,750,750,750,750,750,750,750,750,750
750,750,750,750,750,750,750,750,750,750,750,750,750,750,750,750,750,750
750,750,750,750,750,750,750,750,750,750,750,750,750,750,750,750,750,750
750,750,750,750,750,750,750,750,750,750,750,750,750,750,750,750,750,750
750,750,750,750,750,750,750,750,750,750,750,750,750,750,750,750,750,750
750,750,750,750,750,750,750,750,750,750,750,750,750,750,750,750,750,750
750,750,750,750,750,750,750,750,750,750,750,750,750,750,750,750,750,750
750,750,750,750,750,750,750,750,750,750,750,750,750,750,750,750,750,750
750,750,750,750,750,750,750,750,750,750,750,750,750,750,750,750,750,750
750,750,750,750,750,750,750,750,750,750,750,750,750,750,750,750,750,750
750,750,750,750,750,750,750,750,750,750,750,750,750,750,750,750,750,750
750,750,750,750,750,750,750,750,750,750,750,750,750,750,750,750,750,750
750,750,750,750,750,750,750,750,750,750,750,750,750,750,750,750,750,750
750,750,750,750,750,750,750,750,750,750,750,750,750,750,750,750,750,750
750,750,750,750,750,750,750,750,750,750,750,750,750,750,750,750,750,750
PS_Config_Lmt_FW_Rawdata_X_Delta,,,,,,,,,,,,,,,,,
350,350,350,350,350,350,350,350,350,350,350,350,350,350,350,350,350,
350,350,350,350,350,350,350,350,350,350,350,350,350,350,350,350,350,
350,350,350,350,350,350,350,350,350,350,350,350,350,350,350,350,350,
350,350,350,350,350,350,350,350,350,350,350,350,350,350,350,350,350,
350,350,350,350,350,350,350,350,350,350,350,350,350,350,350,350,350,
350,350,350,350,350,350,350,350,350,350,350,350,350,350,350,350,350,
350,350,350,350,350,350,350,350,350,350,350,350,350,350,350,350,350,
350,350,350,350,350,350,350,350,350,350,350,350,350,350,350,350,350,
350,350,350,350,350,350,350,350,350,350,350,350,350,350,350,350,350,
350,350,350,350,350,350,350,350,350,350,350,350,350,350,350,350,350,
350,350,350,350,350,350,350,350,350,350,350,350,350,350,350,350,350,
350,350,350,350,350,350,350,350,350,350,350,350,350,350,350,350,350,
350,350,350,350,350,350,350,350,350,350,350,350,350,350,350,350,350,
350,350,350,350,350,350,350,350,350,350,350,350,350,350,350,350,350,
350,350,350,350,350,350,350,350,350,350,350,350,350,350,350,350,350,
350,350,350,350,350,350,350,350,350,350,350,350,350,350,350,350,350,
350,350,350,350,350,350,350,350,350,350,350,350,350,350,350,350,350,
350,350,350,350,350,350,350,350,350,350,350,350,350,350,350,350,350,
350,350,350,350,350,350,350,350,350,350,350,350,350,350,350,350,350,
350,350,350,350,350,350,350,350,350,350,350,350,350,350,350,350,350,
350,350,350,350,350,350,350,350,350,350,350,350,350,350,350,350,350,
350,350,350,350,350,350,350,350,350,350,350,350,350,350,350,350,350,
350,350,350,350,350,350,350,350,350,350,350,350,350,350,350,350,350,
350,350,350,350,350,350,350,350,350,350,350,350,350,350,350,350,350,
350,350,350,350,350,350,350,350,350,350,350,350,350,350,350,350,350,
350,350,350,350,350,350,350,350,350,350,350,350,350,350,350,350,350,
350,350,350,350,350,350,350,350,350,350,350,350,350,350,350,350,350,
350,350,350,350,350,350,350,350,350,350,350,350,350,350,350,350,350,
350,350,350,350,350,350,350,350,350,350,350,350,350,350,350,350,350,
350,350,350,350,350,350,350,350,350,350,350,350,350,350,350,350,350,
350,350,350,350,350,350,350,350,350,350,350,350,350,350,350,350,350,
350,350,350,350,350,350,350,350,350,350,350,350,350,350,350,350,350,
PS_Config_Lmt_FW_Rawdata_Y_Delta,,,,,,,,,,,,,,,,,
350,350,350,350,350,350,350,350,350,350,350,350,350,350,350,350,350,350
350,350,350,350,350,350,350,350,350,350,350,350,350,350,350,350,350,350
350,350,350,350,350,350,350,350,350,350,350,350,350,350,350,350,350,350
350,350,350,350,350,350,350,350,350,350,350,350,350,350,350,350,350,350
350,350,350,350,350,350,350,350,350,350,350,350,350,350,350,350,350,350
350,350,350,350,350,350,350,350,350,350,350,350,350,350,350,350,350,350
350,350,350,350,350,350,350,350,350,350,350,350,350,350,350,350,350,350
350,350,350,350,350,350,350,350,350,350,350,350,350,350,350,350,350,350
350,350,350,350,350,350,350,350,350,350,350,350,350,350,350,350,350,350
350,350,350,350,350,350,350,350,350,350,350,350,350,350,350,350,350,350
350,350,350,350,350,350,350,350,350,350,350,350,350,350,350,350,350,350
350,350,350,350,350,350,350,350,350,350,350,350,350,350,350,350,350,350
350,350,350,350,350,350,350,350,350,350,350,350,350,350,350,350,350,350
350,350,350,350,350,350,350,350,350,350,350,350,350,350,350,350,350,350
350,350,350,350,350,350,350,350,350,350,350,350,350,350,350,350,350,350
350,350,350,350,350,350,350,350,350,350,350,350,350,350,350,350,350,350
350,350,350,350,350,350,350,350,350,350,350,350,350,350,350,350,350,350
350,350,350,350,350,350,350,350,350,350,350,350,350,350,350,350,350,350
350,350,350,350,350,350,350,350,350,350,350,350,350,350,350,350,350,350
350,350,350,350,350,350,350,350,350,350,350,350,350,350,350,350,350,350
350,350,350,350,350,350,350,350,350,350,350,350,350,350,350,350,350,350
350,350,350,350,350,350,350,350,350,350,350,350,350,350,350,350,350,350
350,350,350,350,350,350,350,350,350,350,350,350,350,350,350,350,350,350
350,350,350,350,350,350,350,350,350,350,350,350,350,350,350,350,350,350
350,350,350,350,350,350,350,350,350,350,350,350,350,350,350,350,350,350
350,350,350,350,350,350,350,350,350,350,350,350,350,350,350,350,350,350
350,350,350,350,350,350,350,350,350,350,350,350,350,350,350,350,350,350
350,350,350,350,350,350,350,350,350,350,350,350,350,350,350,350,350,350
350,350,350,350,350,350,350,350,350,350,350,350,350,350,350,350,350,350
350,350,350,350,350,350,350,350,350,350,350,350,350,350,350,350,350,350
350,350,350,350,350,350,350,350,350,350,350,350,350,350,350,350,350,350
PS_Config_Lmt_Open_Rawdata_P_A,,,,,,,,,,,,,,,,,
7412,7453,7470,7490,7508,7532,7543,7523,7494,7441,7478,7501,7532,7550,7532,7514,7494,7480,
7397,7450,7468,7487,7507,7539,7543,7515,7483,7456,7492,7518,7550,7570,7545,7527,7503,7477,
7408,7455,7470,7490,7509,7543,7544,7519,7488,7460,7495,7515,7550,7564,7542,7522,7502,7474,
7394,7447,7464,7483,7504,7537,7539,7511,7480,7440,7475,7500,7530,7543,7522,7504,7482,7451,
7414,7467,7490,7508,7530,7564,7562,7535,7502,7456,7492,7517,7548,7557,7536,7514,7491,7452,
7410,7457,7482,7499,7520,7553,7544,7520,7490,7472,7506,7530,7566,7574,7552,7532,7514,7472,
7417,7460,7491,7511,7532,7566,7558,7532,7498,7461,7497,7521,7554,7555,7533,7514,7492,7446,
7434,7477,7508,7527,7548,7583,7571,7544,7510,7464,7495,7519,7552,7550,7531,7511,7485,7445,
7407,7450,7481,7502,7525,7558,7543,7517,7486,7490,7527,7554,7590,7585,7564,7541,7507,7463,
7417,7465,7502,7525,7546,7579,7560,7532,7502,7474,7507,7534,7563,7560,7535,7516,7482,7438,
7428,7477,7516,7545,7563,7602,7579,7552,7515,7494,7530,7558,7594,7584,7558,7538,7499,7457,
7427,7470,7510,7541,7564,7594,7570,7541,7508,7503,7538,7565,7603,7589,7567,7539,7503,7462,
7440,7484,7523,7561,7583,7618,7588,7558,7525,7502,7542,7567,7601,7585,7558,7528,7493,7452,
7448,7491,7531,7570,7590,7627,7600,7568,7532,7512,7552,7579,7615,7593,7570,7532,7496,7453,
7442,7480,7518,7556,7582,7614,7583,7550,7513,7548,7587,7618,7654,7625,7599,7558,7518,7470,
7451,7499,7540,7580,7611,7642,7610,7577,7538,7523,7558,7584,7627,7600,7566,7528,7489,7445,
7446,7493,7535,7579,7617,7648,7609,7575,7536,7542,7580,7613,7651,7620,7583,7542,7502,7456,
7441,7485,7525,7564,7610,7652,7620,7588,7545,7572,7615,7650,7677,7622,7575,7532,7492,7442,
7468,7511,7550,7598,7641,7685,7657,7625,7581,7583,7623,7655,7672,7620,7574,7532,7490,7441,
7477,7529,7569,7616,7662,7706,7675,7640,7593,7589,7632,7671,7682,7623,7580,7533,7493,7445,
7461,7509,7553,7600,7651,7686,7665,7630,7583,7646,7690,7724,7728,7665,7617,7573,7530,7476,
7483,7537,7582,7628,7680,7714,7690,7656,7606,7635,7685,7714,7716,7660,7608,7558,7518,7460,
7517,7569,7616,7665,7718,7752,7730,7694,7643,7664,7713,7742,7741,7678,7626,7582,7539,7485,
7508,7562,7608,7661,7718,7740,7721,7687,7634,7702,7758,7780,7774,7708,7650,7600,7552,7497,
7540,7598,7650,7703,7763,7787,7762,7737,7678,7710,7763,7786,7772,7705,7652,7600,7553,7493,
7565,7628,7681,7740,7800,7820,7790,7765,7702,7751,7797,7818,7800,7733,7674,7620,7572,7510,
7572,7632,7686,7742,7810,7822,7793,7768,7713,7808,7856,7885,7860,7783,7720,7663,7613,7544,
7387,7427,7464,7503,7543,7550,7535,7527,7492,7524,7543,7554,7531,7482,7447,7414,7383,7335,
7457,7503,7545,7593,7639,7642,7626,7611,7575,7605,7632,7645,7619,7564,7520,7479,7443,7390,
7472,7524,7565,7619,7672,7676,7655,7638,7603,7705,7737,7760,7721,7655,7600,7555,7514,7449,
7547,7610,7659,7723,7789,7790,7755,7735,7691,7769,7805,7828,7790,7716,7658,7608,7561,7492,
7743,7825,7901,7988,8083,8083,8035,7992,7928,7985,8042,8084,8035,7933,7847,7773,7712,7622,
PS_Config_Lmt_Open_Rawdata_N_A,,,,,,,,,,,,,,,,,
6905,6930,6939,6951,6962,6977,6984,6971,6954,6922,6944,6958,6977,6987,6977,6966,6954,6945,
6896,6927,6938,6950,6962,6981,6984,6967,6948,6931,6953,6968,6988,6999,6985,6974,6959,6944,
6902,6930,6939,6951,6963,6984,6984,6969,6950,6933,6954,6967,6987,6996,6983,6971,6959,6942,
6894,6926,6936,6947,6960,6980,6981,6964,6945,6921,6942,6957,6975,6984,6971,6960,6947,6928,
6906,6938,6951,6962,6975,6996,6995,6978,6959,6931,6953,6968,6986,6992,6979,6966,6952,6929,
6903,6932,6947,6957,6970,6989,6984,6969,6951,6941,6961,6976,6997,7002,6989,6977,6966,6941,
6908,6934,6952,6964,6977,6997,6992,6977,6956,6934,6956,6970,6990,6990,6978,6966,6953,6925,
6918,6944,6962,6974,6986,7007,7000,6984,6964,6936,6955,6969,6989,6988,6976,6964,6949,6925,
6902,6927,6946,6959,6972,6992,6983,6968,6949,6952,6974,6990,7011,7009,6996,6982,6962,6936,
6908,6936,6959,6973,6985,7005,6993,6977,6959,6942,6962,6978,6996,6993,6979,6967,6947,6920,
6915,6944,6967,6985,6996,7019,7005,6989,6967,6954,6976,6992,7014,7008,6992,6980,6957,6932,
6914,6939,6963,6982,6996,7014,6999,6982,6962,6960,6981,6997,7020,7011,6998,6981,6960,6935,
6921,6948,6972,6994,7008,7029,7010,6992,6972,6959,6983,6998,7018,7009,6993,6974,6954,6929,
6926,6952,6976,7000,7012,7034,7018,6998,6977,6965,6989,7005,7027,7014,7000,6977,6955,6929,
6923,6945,6969,6991,7007,7026,7008,6988,6966,6987,7010,7028,7050,7033,7017,6992,6968,6940,
6928,6957,6982,7005,7024,7043,7024,7004,6981,6971,6993,7008,7034,7017,6997,6974,6951,6925,
6925,6954,6978,7005,7028,7046,7023,7002,6979,6983,7005,7025,7048,7029,7007,6983,6959,6931,
6922,6949,6972,6996,7024,7049,7030,7010,6985,7001,7027,7048,7064,7031,7002,6977,6953,6923,
6938,6964,6988,7016,7042,7068,7052,7032,7006,7008,7032,7050,7061,7030,7002,6977,6951,6922,
6944,6975,6999,7027,7055,7081,7063,7042,7013,7011,7037,7060,7067,7032,7006,6977,6954,6925,
6934,6963,6990,7018,7048,7069,7056,7035,7007,7045,7072,7092,7094,7056,7028,7002,6976,6943,
6948,6980,7007,7034,7065,7086,7072,7051,7021,7038,7069,7086,7087,7053,7022,6993,6969,6933,
6968,6999,7027,7056,7089,7109,7095,7074,7043,7056,7085,7103,7102,7065,7033,7007,6981,6948,
6962,6995,7023,7054,7089,7101,7090,7070,7038,7079,7112,7126,7122,7083,7048,7018,6989,6956,
6981,7016,7048,7079,7115,7130,7115,7100,7065,7083,7116,7129,7121,7081,7049,7018,6990,6954,
6996,7034,7066,7101,7138,7150,7131,7117,7079,7108,7136,7149,7137,7097,7062,7029,7001,6963,
7001,7037,7069,7103,7143,7151,7134,7119,7086,7142,7171,7188,7173,7128,7090,7055,7026,6984,
6890,6914,6936,6959,6983,6988,6979,6974,6953,6972,6984,6990,6976,6947,6926,6906,6887,6858,
6932,6959,6984,7013,7041,7043,7033,7024,7003,7021,7037,7045,7029,6996,6969,6945,6924,6892,
6941,6972,6997,7029,7061,7063,7051,7040,7019,7080,7100,7113,7090,7050,7018,6991,6966,6927,
6986,7023,7053,7092,7131,7131,7111,7098,7072,7119,7140,7155,7132,7087,7053,7022,6994,6953,
7104,7153,7198,7250,7308,7308,7279,7253,7214,7249,7283,7308,7279,7218,7166,7121,7085,7031,
